Сетевой анализ цифровых следов
…
edges %>% 
  group_by(to) %>% 
  summarise(s=sum(weight))

# A tibble: 32 × 2
   to                s
   <chr>         <int>
 1 Guangzhou        11
 2 New York City    13
 3 San Francisco    11
 4 Абакан          367
 5 Алматы           17
 6 Барнаул        9075
 7 Бийск            51
 8 Владивосток     100
 9 Горно-Алтайск    17
10 Екатеринбург    207
# ℹ 22 more rows
…
