R в социологических исследованиях - 8 Основы визуализации в ggplot2
…
расход топлива на трассе (hwy)

тип топлива (fl)

класс машины (class, 2seater - маленькая машина на 2 пассажиров, compact - компактная, midsize - средних размеров, minivan - минивен, pickup - пикап, subcompact - субкомпактная, suv - кроссовер). Кому интересны подробности: https://en.wikipedia.org/wiki/Car_classification

К примеру, мы можем задаться вопросом: потребляют ли большие машины (с большим объемом двигателя) больше топлива, чем малолитражки? Возможно, мы уже знаем ответ на данный вопрос, и все кажется очевидным, но мы можем еще раз удостовериться в своих предположениях. Какова в действительности взаимосвязь между объемом двигателя и потребляемым топливом? Является ли она положительной? Или отрицательной? Линейной? Или Нелинейной?

Попробуем выяснить.

Прежде всего давайте посмотрим, что представляют собой наши данные:

mpg

# A tibble: 234 × 11
   manufacturer model      displ  year   cyl trans drv     cty   hwy fl    class
   <chr>        <chr>      <dbl> <int> <int> <chr> <chr> <int> <int> <chr> <chr>
 1 audi         a4           1.8  1999     4 auto… f        18    29 p     comp…
 2 audi         a4           1.8  1999     4 manu… f        21    29 p     comp…
 3 audi         a4           2    2008     4 manu… f        20    31 p     comp…
 4 audi         a4           2    2008     4 auto… f        21    30 p     comp…
 5 audi         a4           2.8  1999     6 auto… f        16    26 p     comp…
 6 audi         a4           2.8  1999     6 manu… f        18    26 p     comp…
 7 audi         a4           3.1  2008     6 auto… f        18    27 p     comp…
 8 audi         a4 quattro   1.8  1999     4 manu… 4        18    26 p     comp…
 9 audi         a4 quattro   1.8  1999     4 auto… 4        16    25 p     comp…
10 audi         a4 quattro   2    2008     4 manu… 4        20    28 p     comp…
# ℹ 224 more rows
…
