R в социологических исследованиях - 7 Tidyverse и трансформация данных
…
Функция filter() позволяет отобрать наблюдения, основываясь на значениях. Первый аргумент - имя датафрейма (массива, базы данных), второй и последующие аргументы - выражения, позволяющие отфильтровать данные. Например, мы хотим отобрать все полеты, которые произошли 1 января:

filter(flights, month == 1, day == 1)

# A tibble: 842 × 19
    year month   day dep_time sched_dep_time dep_delay arr_time sched_arr_time
   <int> <int> <int>    <int>          <int>     <dbl>    <int>          <int>
 1  2013     1     1      517            515         2      830            819
 2  2013     1     1      533            529         4      850            830
 3  2013     1     1      542            540         2      923            850
 4  2013     1     1      544            545        -1     1004           1022
 5  2013     1     1      554            600        -6      812            837
 6  2013     1     1      554            558        -4      740            728
 7  2013     1     1      555            600        -5      913            854
 8  2013     1     1      557            600        -3      709            723
 9  2013     1     1      557            600        -3      838            846
10  2013     1     1      558            600        -2      753            745
# ℹ 832 more rows
# ℹ 11 more variables: arr_delay <dbl>, carrier <chr>, flight <int>,
#   tailnum <chr>, origin <chr>, dest <chr>, air_time <dbl>, distance <dbl>,
#   hour <dbl>, minute <dbl>, time_hour <dttm>

Когда мы запускаем эту строку с кодом, dplyr выполняет фильтрующую операцию и выводит новый датафрейм. Однако, стоит учитывать, что исходные данные не меняются, и если нам необходимо сохранить эти изменения как отдельный объект, нам нужно использовать оператор присваивания, <-, и задать новое имя:

jan1 <- filter(flights, month == 1, day == 1)

R либо выводит на экран результаты либо сохраняет их в новую переменную (объект). Если мы хотим одновременно создать новую базу данных, сохранить в нее результаты фильтрации и вывести результат на экран, нужно код заключить в скобки:

(dec25 <- filter(flights, month == 12, day == 25))

# A tibble: 719 × 19
    year month   day dep_time sched_dep_time dep_delay arr_time sched_arr_time
   <int> <int> <int>    <int>          <int>     <dbl>    <int>          <int>
 1  2013    12    25      456            500        -4      649            651
 2  2013    12    25      524            515         9      805            814
 3  2013    12    25      542            540         2      832            850
 4  2013    12    25      546            550        -4     1022           1027
 5  2013    12    25      556            600        -4      730            745
 6  2013    12    25      557            600        -3      743            752
 7  2013    12    25      557            600        -3      818            831
 8  2013    12    25      559            600        -1      855            856
 9  2013    12    25      559            600        -1      849            855
10  2013    12    25      600            600         0      850            846
# ℹ 709 more rows
# ℹ 11 more variables: arr_delay <dbl>, carrier <chr>, flight <int>,
#   tailnum <chr>, origin <chr>, dest <chr>, air_time <dbl>, distance <dbl>,
#   hour <dbl>, minute <dbl>, time_hour <dttm>
…
Например, давайте отфильтруем данные так, чтобы у нас отображались два месяца - ноябрь и декабрь.

filter(flights, month == 11 | month == 12)

# A tibble: 55,403 × 19
    year month   day dep_time sched_dep_time dep_delay arr_time sched_arr_time
   <int> <int> <int>    <int>          <int>     <dbl>    <int>          <int>
 1  2013    11     1        5           2359         6      352            345
 2  2013    11     1       35           2250       105      123           2356
 3  2013    11     1      455            500        -5      641            651
 4  2013    11     1      539            545        -6      856            827
 5  2013    11     1      542            545        -3      831            855
 6  2013    11     1      549            600       -11      912            923
 7  2013    11     1      550            600       -10      705            659
 8  2013    11     1      554            600        -6      659            701
 9  2013    11     1      554            600        -6      826            827
10  2013    11     1      554            600        -6      749            751
# ℹ 55,393 more rows
# ℹ 11 more variables: arr_delay <dbl>, carrier <chr>, flight <int>,
#   tailnum <chr>, origin <chr>, dest <chr>, air_time <dbl>, distance <dbl>,
#   hour <dbl>, minute <dbl>, time_hour <dttm>

Для некоторого упрощения кода полезно будет запомнить “законы де Моргана”:

!(x & y) это то же самое, что и !x | !y,

!(x | y) равносильно !x & !y.

Например, если нам нужно отобрать полеты, которые задерживались (по прилетам и отлетам) не более чем на два часа, мы могли бы пойти двумя путями:

filter(flights, !(arr_delay > 120 | dep_delay > 120))

# A tibble: 316,050 × 19
    year month   day dep_time sched_dep_time dep_delay arr_time sched_arr_time
   <int> <int> <int>    <int>          <int>     <dbl>    <int>          <int>
 1  2013     1     1      517            515         2      830            819
 2  2013     1     1      533            529         4      850            830
 3  2013     1     1      542            540         2      923            850
 4  2013     1     1      544            545        -1     1004           1022
 5  2013     1     1      554            600        -6      812            837
 6  2013     1     1      554            558        -4      740            728
 7  2013     1     1      555            600        -5      913            854
 8  2013     1     1      557            600        -3      709            723
 9  2013     1     1      557            600        -3      838            846
10  2013     1     1      558            600        -2      753            745
# ℹ 316,040 more rows
# ℹ 11 more variables: arr_delay <dbl>, carrier <chr>, flight <int>,
#   tailnum <chr>, origin <chr>, dest <chr>, air_time <dbl>, distance <dbl>,
#   hour <dbl>, minute <dbl>, time_hour <dttm>

# Или (результат идентичный)
filter(flights, arr_delay <= 120, dep_delay <= 120)

# A tibble: 316,050 × 19
    year month   day dep_time sched_dep_time dep_delay arr_time sched_arr_time
   <int> <int> <int>    <int>          <int>     <dbl>    <int>          <int>
 1  2013     1     1      517            515         2      830            819
 2  2013     1     1      533            529         4      850            830
 3  2013     1     1      542            540         2      923            850
 4  2013     1     1      544            545        -1     1004           1022
 5  2013     1     1      554            600        -6      812            837
 6  2013     1     1      554            558        -4      740            728
 7  2013     1     1      555            600        -5      913            854
 8  2013     1     1      557            600        -3      709            723
 9  2013     1     1      557            600        -3      838            846
10  2013     1     1      558            600        -2      753            745
# ℹ 316,040 more rows
# ℹ 11 more variables: arr_delay <dbl>, carrier <chr>, flight <int>,
#   tailnum <chr>, origin <chr>, dest <chr>, air_time <dbl>, distance <dbl>,
#   hour <dbl>, minute <dbl>, time_hour <dttm>
…
Создайте набор данных arr_depay_over120, в который отберите рейсы, прилет которых (arr_delay) задерживался на 2 или более часа.

Выгрузите данные о рейсах в аэропорты Хьюстона - George Bush Intercontinental (IAH) или аэропорт William P Hobby (HOU) (по переменной dest) и сохраните их под именем IAH_OR_HOU.

Отберите из таблицы все полеты, которые совершались в летние месяцы, и сохраните их под именем summer_flights.

7.4 Упорядочение строк с функцией arrange()

Функция arrange() работает практически идентично с filter(), однако, вместо отбора строк она меняет их порядок. На входе функция берет датафрейм и наименования столбцов, по которым нужно сделать сортировку.Если таких столбцов несколько, каждая дополнительная колонка может быть использована для сортировки значений по уже отсортированным значениям предыдущего столбца.

Например, отсортируем полеты по дате (сначала по месяцу, потом по дню):

arrange(flights, month, day)

# A tibble: 336,776 × 19
    year month   day dep_time sched_dep_time dep_delay arr_time sched_arr_time
   <int> <int> <int>    <int>          <int>     <dbl>    <int>          <int>
 1  2013     1     1      517            515         2      830            819
 2  2013     1     1      533            529         4      850            830
 3  2013     1     1      542            540         2      923            850
 4  2013     1     1      544            545        -1     1004           1022
 5  2013     1     1      554            600        -6      812            837
 6  2013     1     1      554            558        -4      740            728
 7  2013     1     1      555            600        -5      913            854
 8  2013     1     1      557            600        -3      709            723
 9  2013     1     1      557            600        -3      838            846
10  2013     1     1      558            600        -2      753            745
# ℹ 336,766 more rows
# ℹ 11 more variables: arr_delay <dbl>, carrier <chr>, flight <int>,
#   tailnum <chr>, origin <chr>, dest <chr>, air_time <dbl>, distance <dbl>,
#   hour <dbl>, minute <dbl>, time_hour <dttm>

Если нам нужно отсортировать что-то по убыванию, то функция desc() поможет нам перегруппировать значения в столбце. Например, отсортируем по убыванию значения задержки отлета:

arrange(flights, desc(dep_delay))

# A tibble: 336,776 × 19
    year month   day dep_time sched_dep_time dep_delay arr_time sched_arr_time
   <int> <int> <int>    <int>          <int>     <dbl>    <int>          <int>
 1  2013     1     9      641            900      1301     1242           1530
 2  2013     6    15     1432           1935      1137     1607           2120
 3  2013     1    10     1121           1635      1126     1239           1810
 4  2013     9    20     1139           1845      1014     1457           2210
 5  2013     7    22      845           1600      1005     1044           1815
 6  2013     4    10     1100           1900       960     1342           2211
 7  2013     3    17     2321            810       911      135           1020
 8  2013     6    27      959           1900       899     1236           2226
 9  2013     7    22     2257            759       898      121           1026
10  2013    12     5      756           1700       896     1058           2020
# ℹ 336,766 more rows
# ℹ 11 more variables: arr_delay <dbl>, carrier <chr>, flight <int>,
#   tailnum <chr>, origin <chr>, dest <chr>, air_time <dbl>, distance <dbl>,
#   hour <dbl>, minute <dbl>, time_hour <dttm>
…
 Самостоятельное задание:

Отсортируйте полеты, чтобы найти те, что имеют наибольшие значения времени задержки прилета (arr_delay). Найдите также полеты, которые вылетели раньше времени по расписанию (вспоминаем функцию tail()).

Найдите самые короткие (быстрые) полеты по переменной air_time.

7.5 Отбор переменных с функцией select()

Достаточно часто нам для анализа не нужен весь наш набор данных, а только ограниченный набор переменных, с которыми мы работаем в какой-то момент времени. Удобно и полезно отобрать эти переменные и работать только с ними, особенно - если данных очень много, и количество переменных исчисляется сотнями или тысячами. Функция select() позволяет быстро отобрать переменные по их именам:

select(flights, year, month, day)

# A tibble: 336,776 × 3
    year month   day
   <int> <int> <int>
 1  2013     1     1
 2  2013     1     1
 3  2013     1     1
 4  2013     1     1
 5  2013     1     1
 6  2013     1     1
 7  2013     1     1
 8  2013     1     1
 9  2013     1     1
10  2013     1     1
# ℹ 336,766 more rows

select(flights, year:day) # если переменные идут подряд, не обязательно перечислять все, можно воспользоваться оператором :

# A tibble: 336,776 × 3
    year month   day
   <int> <int> <int>
 1  2013     1     1
 2  2013     1     1
 3  2013     1     1
 4  2013     1     1
 5  2013     1     1
 6  2013     1     1
 7  2013     1     1
 8  2013     1     1
 9  2013     1     1
10  2013     1     1
# ℹ 336,766 more rows

select(flights, -(year:day))# знак минуса используется для того, чтобы, наоборот, исключить какие-то переменные

# A tibble: 336,776 × 16
   dep_time sched_dep_time dep_delay arr_time sched_arr_time arr_delay carrier
      <int>          <int>     <dbl>    <int>          <int>     <dbl> <chr>  
 1      517            515         2      830            819        11 UA     
 2      533            529         4      850            830        20 UA     
 3      542            540         2      923            850        33 AA     
 4      544            545        -1     1004           1022       -18 B6     
 5      554            600        -6      812            837       -25 DL     
 6      554            558        -4      740            728        12 UA     
 7      555            600        -5      913            854        19 B6     
 8      557            600        -3      709            723       -14 EV     
 9      557            600        -3      838            846        -8 B6     
10      558            600        -2      753            745         8 AA     
# ℹ 336,766 more rows
# ℹ 9 more variables: flight <int>, tailnum <chr>, origin <chr>, dest <chr>,
#   air_time <dbl>, distance <dbl>, hour <dbl>, minute <dbl>, time_hour <dttm>

Есть еще несколько полезных функций, которые идут в паре с select() и делают жизнь проще:

starts_with("abc"): имена переменных начинаются на “abc”.

ends_with("xyz"): имена переменных заканчиваются на “xyz”.

contains("ijk"): имя переменной содержит “ijk”.

Иногда, в процессе обработки нам требуется переименовать переменную другим способом. Для этой цели подходит функция rename:

rename(flights, tail_num = tailnum)

# A tibble: 336,776 × 19
    year month   day dep_time sched_dep_time dep_delay arr_time sched_arr_time
   <int> <int> <int>    <int>          <int>     <dbl>    <int>          <int>
 1  2013     1     1      517            515         2      830            819
 2  2013     1     1      533            529         4      850            830
 3  2013     1     1      542            540         2      923            850
 4  2013     1     1      544            545        -1     1004           1022
 5  2013     1     1      554            600        -6      812            837
 6  2013     1     1      554            558        -4      740            728
 7  2013     1     1      555            600        -5      913            854
 8  2013     1     1      557            600        -3      709            723
 9  2013     1     1      557            600        -3      838            846
10  2013     1     1      558            600        -2      753            745
# ℹ 336,766 more rows
# ℹ 11 more variables: arr_delay <dbl>, carrier <chr>, flight <int>,
#   tail_num <chr>, origin <chr>, dest <chr>, air_time <dbl>, distance <dbl>,
#   hour <dbl>, minute <dbl>, time_hour <dttm>
…
Пример: создадим новый набор flights_sml, куда отберем переменные даты полета, расстояние и переменные, оканчивающиеся на “delay”. Затем, содадим две новых переменных: - скорость (speed) - количество минут, которые самолет смог догнать при задержке рейса (как разность между задержкой вылета и прилета) (gain).

flights_sml <- select(flights,
  year:day,
  ends_with("delay"),
  distance,
  air_time
)
mutate(flights_sml,
  gain = dep_delay - arr_delay,
  speed = distance / air_time * 60
)

# A tibble: 336,776 × 9
    year month   day dep_delay arr_delay distance air_time  gain speed
   <int> <int> <int>     <dbl>     <dbl>    <dbl>    <dbl> <dbl> <dbl>
 1  2013     1     1         2        11     1400      227    -9  370.
 2  2013     1     1         4        20     1416      227   -16  374.
 3  2013     1     1         2        33     1089      160   -31  408.
 4  2013     1     1        -1       -18     1576      183    17  517.
 5  2013     1     1        -6       -25      762      116    19  394.
 6  2013     1     1        -4        12      719      150   -16  288.
 7  2013     1     1        -5        19     1065      158   -24  404.
 8  2013     1     1        -3       -14      229       53    11  259.
 9  2013     1     1        -3        -8      944      140     5  405.
10  2013     1     1        -2         8      733      138   -10  319.
# ℹ 336,766 more rows

Отметим, что мы можем “не отходя от кассы” использовать новые переменные в последующих расчетах для создания других переменных. Например, давайте создадим переменную gain (см. пример выше), но и посчитаем время полета в часах и среднее количество минут, которое нагонял самолет каждый час:

mutate(flights_sml,
  gain = dep_delay - arr_delay,
  hours = air_time / 60,
  gain_per_hour = gain / hours
)

# A tibble: 336,776 × 10
    year month   day dep_delay arr_delay distance air_time  gain hours
   <int> <int> <int>     <dbl>     <dbl>    <dbl>    <dbl> <dbl> <dbl>
 1  2013     1     1         2        11     1400      227    -9 3.78 
 2  2013     1     1         4        20     1416      227   -16 3.78 
 3  2013     1     1         2        33     1089      160   -31 2.67 
 4  2013     1     1        -1       -18     1576      183    17 3.05 
 5  2013     1     1        -6       -25      762      116    19 1.93 
 6  2013     1     1        -4        12      719      150   -16 2.5  
 7  2013     1     1        -5        19     1065      158   -24 2.63 
 8  2013     1     1        -3       -14      229       53    11 0.883
 9  2013     1     1        -3        -8      944      140     5 2.33 
10  2013     1     1        -2         8      733      138   -10 2.3  
# ℹ 336,766 more rows
# ℹ 1 more variable: gain_per_hour <dbl>
…
Приведем еще один пример: в наборе по полетам проведем группировку по месту назначения и посчитаем общее количество полетов, среднее расстояние и среднюю задержку рейсов в минутах, а также отфильтруем дни, в которых было более 20 полетов. И все это - в нескольких строчках кода:

delays <- flights %>%
  group_by(dest) %>%
  summarise(
    count = n(),
    dist = mean(distance, na.rm = TRUE),
    delay = mean(arr_delay, na.rm = TRUE)
  ) %>%
  filter(count > 20, dest != "HNL")
delays

# A tibble: 96 × 4
   dest  count  dist delay
   <chr> <int> <dbl> <dbl>
 1 ABQ     254 1826   4.38
 2 ACK     265  199   4.85
 3 ALB     439  143  14.4 
 4 ATL   17215  757. 11.3 
 5 AUS    2439 1514.  6.02
 6 AVL     275  584.  8.00
 7 BDL     443  116   7.05
 8 BGR     375  378   8.03
 9 BHM     297  866. 16.9 
10 BNA    6333  758. 11.8 
# ℹ 86 more rows
…
Например:

flights %>%
na.omit() %>% #na.omit() - опускает пропущенные значения
group_by(year, month, day) %>%
  summarise(
    first_dep = first(dep_time),
    last_dep = last(dep_time)
  )

`summarise()` has grouped output by 'year', 'month'. You can override using the
`.groups` argument.

# A tibble: 365 × 5
# Groups:   year, month [12]
    year month   day first_dep last_dep
   <int> <int> <int>     <int>    <int>
 1  2013     1     1       517     2356
 2  2013     1     2        42     2354
 3  2013     1     3        32     2349
 4  2013     1     4        25     2358
 5  2013     1     5        14     2357
 6  2013     1     6        16     2355
 7  2013     1     7        49     2359
 8  2013     1     8       454     2351
 9  2013     1     9         2     2252
10  2013     1    10         3     2320
# ℹ 355 more rows
…
